<?xml version="1.0" standalone="no"?>
<!DOCTYPE svg PUBLIC "-//W3C//DTD SVG 1.1//EN" "http://www.w3.org/Graphics/SVG/1.1/DTD/svg11.dtd" >
<svg xmlns="http://www.w3.org/2000/svg">
<metadata>Generated by IcoMoon</metadata>
<defs>
<font id="icomoon" horiz-adv-x="1024">
<font-face units-per-em="1024" ascent="960" descent="-64" />
<missing-glyph horiz-adv-x="1024" />
<glyph unicode="&#x20;" d="" horiz-adv-x="512" />
<glyph unicode="&#xe600;" d="M860.192 100.085c-94.021-94.021-219.021-145.8-351.996-145.8-132.971 0-257.986 51.791-352.005 145.814-94.037 94.021-145.808 219.031-145.808 352 0.008 132.963 51.812 257.976 145.849 351.99 94.013 94.029 219.027 145.814 352.007 145.814 132.945 0 257.943-51.771 351.952-145.78 194.105-194.113 194.105-509.952 0-704.037v0zM755.593 471.803c-0.093 0-0.171 0-0.256 0l-171.201-2.072c-8.993 31.841-38.252 55.262-72.949 55.262-12.268 0-23.818-2.992-34.092-8.184l-190.752 213.161c-7.242 8.114-19.712 8.82-27.835 1.553-8.114-7.257-8.794-19.726-1.545-27.841l190.73-213.145c-7.794-11.92-12.366-26.135-12.366-41.395 0-41.839 34.029-75.879 75.86-75.879 35.325 0 64.989 24.3 73.402 57.040l171.227 2.070c10.892 0.125 19.609 9.067 19.476 19.957-0.129 10.799-8.936 19.474-19.699 19.474v0zM511.187 402.833c-25.528 0-46.289 20.772-46.289 46.309 0 25.515 20.758 46.281 46.289 46.281 25.534 0 46.303-20.768 46.303-46.281 0-25.536-20.766-46.309-46.303-46.309v0z" />
<glyph unicode="&#xe601;" d="M987.361 59.315h-307.435c-14.111 0-25.562 11.266-25.562 25.167v212.805c0 13.901 11.453 25.165 25.562 25.165h13.195v16.869c0 76.293 63.041 138.357 140.521 138.357 77.486 0 140.521-62.064 140.521-138.357v-16.869h13.201c14.125 0 25.558-11.264 25.558-25.165v-212.805c0-13.901-11.433-25.167-25.56-25.167v0zM817.564 183.868v-46.335h33.134v45.462c13.499 5.959 22.954 19.257 22.954 34.731 0 21.011-17.358 38.099-38.691 38.099-21.353 0-38.713-17.088-38.713-38.099 0-14.825 8.741-27.564 21.317-33.858v0zM923.040 339.323c0 48.536-40.105 88.018-89.398 88.018s-89.398-39.481-89.398-88.018v-16.869h178.796v16.869zM137.246 514.642h120.283c9.419 0 17.040-7.512 17.040-16.782 0-9.264-7.621-16.78-17.040-16.78h-120.283c-9.419 0-17.040 7.516-17.040 16.78 0 9.268 7.621 16.782 17.040 16.782v0zM137.246 593.474h349.154c9.405 0 17.040-7.512 17.040-16.78 0-9.266-7.635-16.778-17.040-16.778h-349.154c-9.419 0-17.040 7.512-17.040 16.778 0 9.268 7.621 16.78 17.040 16.78v0zM835.556 529.87c-14.129 0-25.562 11.266-25.562 25.173v129.446h-746.951v-258.71c0-49.838 41.187-90.382 91.81-90.382h425.123c14.129 0 25.558-11.27 25.558-25.173 0-13.907-11.429-25.169-25.558-25.169h-425.123c-78.818 0-142.936 63.128-142.936 140.723v271.296c0 77.595 64.118 140.729 142.936 140.729h563.329c78.814 0 142.934-63.132 142.934-140.729v-142.032c0-13.909-11.449-25.173-25.56-25.173v0zM647.768 593.474h93.894c9.405 0 17.044-7.512 17.044-16.78 0-9.266-7.639-16.778-17.044-16.778h-93.894c-9.413 0-17.038 7.512-17.038 16.778 0 9.268 7.625 16.78 17.038 16.78v0z" />
<glyph unicode="&#xe602;" d="M952.958-39.35h-884.722c-25.276 0-45.762 20.488-45.762 45.764v762.693c0 25.272 20.486 45.762 45.762 45.762h91.52v-45.762c0-58.976 47.806-106.776 106.78-106.776 58.968 0 106.776 47.8 106.776 106.776v45.762h274.569v-45.762c0-58.976 47.804-106.776 106.772-106.776 58.976 0 106.778 47.8 106.778 106.776v45.762h91.524c25.274 0 45.764-20.49 45.764-45.762v-762.693c0-25.276-20.49-45.764-45.762-45.764v0zM907.196 570.798h-793.198v-518.621h793.196v518.621h0.002zM358.058 357.25c12.634 0 24.075-5.12 32.358-13.397l74.416-74.424 181.196 181.196c8.281 8.281 19.722 13.405 32.358 13.405 25.272 0 45.764-20.49 45.764-45.764 0-12.634-5.126-24.077-13.407-32.354l-213.551-213.555c-8.281-8.285-19.722-13.401-32.36-13.401-12.634 0-24.075 5.116-32.358 13.401l-106.776 106.776c-8.281 8.279-13.403 19.724-13.403 32.354 0 25.278 20.49 45.762 45.764 45.762v0zM754.654 723.345c-25.27 0-45.76 20.49-45.76 45.762v122.031c0 25.272 20.49 45.764 45.76 45.764 25.276 0 45.766-20.49 45.766-45.764v-122.031c0-25.272-20.49-45.762-45.766-45.762v0zM266.536 723.345c-25.276 0-45.762 20.49-45.762 45.762v122.031c0 25.272 20.486 45.764 45.762 45.764 25.268 0 45.758-20.49 45.758-45.764v-122.031c0-25.272-20.488-45.762-45.758-45.762v0z" />
<glyph unicode="&#xe603;" d="M947.278 42.17c-42.318-40.433-98.582-62.697-158.426-62.697-59.853 0-116.104 22.264-158.418 62.701-42.31 40.427-65.606 94.18-65.606 151.365 0.004 57.181 23.309 110.934 65.623 151.361 42.308 40.433 98.572 62.709 158.422 62.709 59.837 0 116.094-22.262 158.404-62.687 87.354-83.479 87.354-219.291 0-302.752v0zM916.603 315.61c-34.124 32.591-79.484 50.542-127.73 50.542-48.255 0-93.621-17.959-127.738-50.566-34.124-32.599-52.922-75.945-52.922-122.047 0-46.112 18.786-89.458 52.896-122.057 34.122-32.597 79.49-50.556 127.744-50.556 48.257 0 93.621 17.959 127.751 50.556 70.427 67.298 70.427 176.814-0.002 244.128v0zM872.231 174.324h-83.35c-5.991 0-10.846 4.635-10.846 10.365v134.719c0 5.726 4.856 10.365 10.846 10.365s10.846-4.639 10.846-10.365v-124.355h72.503c5.993 0 10.848-4.639 10.848-10.363 0-5.73-4.856-10.365-10.848-10.365v0zM465.198 525.86c70.189-27.344 105.623-61.205 105.623-119.156 0-51.441-37.476-99.624-107.665-110.695v-67.717h-42.934v65.763c-39.526 0.65-80.417 12.373-104.265 28.652l16.356 43.622c24.534-15.626 59.969-27.998 98.133-27.998 48.383 0 81.095 26.694 81.095 63.814 0 35.812-26.574 57.95-77.013 77.482-69.503 26.049-112.437 56-112.437 112.648 0 54.047 40.21 95.071 102.907 104.84v65.767h42.242v-63.16c40.892-1.304 68.835-11.723 88.601-22.79l-17.042-42.976c-14.314 7.814-42.25 22.14-85.865 22.14-52.471 0-72.237-29.954-72.237-55.996-0.002-33.864 25.216-50.792 84.501-74.239v0zM860.5 429.224c-11.894 1.346-20.398 11.656-18.993 23.023 1.849 14.871 2.78 30.058 2.78 45.134 0 209.093-178.029 379.2-396.859 379.2-218.826 0-396.861-170.107-396.861-379.2 0-209.087 178.037-379.198 396.861-379.198 24.984 0 49.997 2.233 74.334 6.639 11.781 2.13 23.121-5.265 25.353-16.505 2.231-11.248-5.504-22.097-17.275-24.228-26.996-4.889-54.721-7.363-82.411-7.363-242.752 0-440.246 188.706-440.246 420.655s197.495 420.659 440.246 420.659c242.756 0 440.25-188.71 440.25-420.659 0-16.7-1.040-33.528-3.080-50.013-1.418-11.369-12.234-19.448-24.101-18.144v0z" />
<glyph unicode="&#xe604;" d="M186.567 473.347l0.042-62.375c0.036-50.23 3.939-122.94 7.868-171.873 1.889-23.584 4.925-46.239 7.172-67.719l-176.544-1.453c2.209 21.508 5.253 44.251 7.092 67.872 3.84 48.971 7.631 121.749 7.59 171.968l-0.048 62.379c-0.052 50.234-3.939 122.962-7.852 171.869-1.881 23.578-4.927 46.247-7.184 67.727l176.53 1.44c-2.217-21.498-5.217-44.251-7.065-67.839-3.84-48.957-7.637-121.763-7.601-171.996v0zM198.791 124.917c-2.006-6.84-4.51-13.455-7.894-19.748-25.059-46.575-77.227-43.149-77.227-43.149s-52.166-4.287-77.301 41.871c-3.408 6.235-5.919 12.817-7.957 19.623 0 0-5.987 24.135-5.963 28.157l182.111 0.69c0.028-4.315-5.768-27.443-5.768-27.443v0zM21.621 735.688c-0.042 4.307 5.752 27.427 5.752 27.427 1.998 6.838 4.508 13.463 7.896 19.756 25.065 46.575 77.233 43.147 77.233 43.147s52.166 4.289 77.303-41.857c3.41-6.247 5.919-12.853 7.959-19.627 0 0 5.979-24.141 5.969-28.163l-182.113-0.684zM443.424 825.037c-17.595 0-37.721-8.709-37.721-56.079v-632.882c0-36.637 20.126-48.834 37.721-48.834 17.635 0 37.977 12.197 37.977 48.834v632.882c-0.002 47.37-20.311 56.079-37.977 56.079v0zM464.236 367.533l-10.998-32.609h-19.341l-10.928 32.609v49.816l8.57 13.073h23.731l8.93-13.073v-49.816h0.036zM483.366 421.529v-9.146h10.31l5.434-30.738h9.556l-7.349 39.884h-17.951zM378.429 381.645h9.5l5.426 30.738h10.312v9.146h-17.953l-7.285-39.884zM655.752 825.037c-17.666 0-37.834-8.709-37.834-56.079v-632.882c0-36.637 20.208-48.834 37.834-48.834 17.525 0 37.838 12.197 37.838 48.834v632.882c0 47.37-20.313 56.079-37.838 56.079v0zM676.423 367.533l-11.103-32.609h-19.198l-11.139 32.609v49.816l8.637 13.073h23.773l9.029-13.073v-49.816zM695.588 421.529v-9.146h10.274l5.464-30.738h9.606l-7.285 39.884h-18.058zM590.651 381.645h9.5l5.418 30.738h10.353v9.146h-18.128l-7.144-39.884zM946.922 747.543c-6.639-21.277-3.776-34.665 2.503-50.252 2.929-7.526 3.352-16.454 2.141-23.111-2.396-12.123-9.351-19.76-9.351-19.76l51.323 17.275c-14.563 14.4 0 28.362 0 28.362-13.497 14.76 0 28.219 0 28.219-13.133 15.696 0 29.374 0 29.374-5.633 7.808-4.563 16.74 1.927 29.159 6.144 12.024-7.778 10.083-7.778 10.083s-22.91 0.503-39.9-0.467c-5.031-0.294-8.922-0.362-10.493-4.792-2.358-6.514 2.992-9.14 5.854-12.592 3.712-4.036 9.771-12.859 3.774-31.497v0zM976.624 150.555v508.369l-10.491-3.346v-505.021l10.491-0.002zM934.858 144.288h73.096v-10.616h-73.096v10.616zM963.85 127.235h15.123v-47.597h-15.123v47.597zM861.478 747.543c-6.705-21.277-3.853-34.665 2.426-50.252 2.819-7.526 3.43-16.454 2.147-23.111-2.358-12.123-9.353-19.76-9.353-19.76l51.321 17.275c-14.555 14.4 0 28.362 0 28.362-13.487 14.76 0 28.219 0 28.219-13.123 15.696 0 29.374 0 29.374-5.709 7.808-4.675 16.74 2 29.159 6.15 12.024-7.848 10.083-7.848 10.083s-22.836 0.503-40.077-0.467c-4.718-0.294-8.751-0.362-10.387-4.792-2.251-6.514 3.068-9.14 5.886-12.592 3.67-4.036 9.813-12.859 3.885-31.497v0zM891.071 150.555v508.369l-10.459-3.346v-505.021l10.459-0.002zM849.349 144.288h73.159v-10.616h-73.159v10.616zM878.33 127.235h15.131v-47.597h-15.131v47.597z" />
<glyph unicode="&#xe605;" d="M841.505 591.662c-62.327-53.2-152.767-134.554-212.024-193.828l-73.585-73.603c-59.267-59.261-140.493-149.595-193.621-211.92-25.608-30.034-48.776-60.329-71.473-88.315l-210.139 206.45c28 22.749 58.436 45.981 88.495 71.668 62.355 53.21 152.747 134.546 211.986 193.816l73.571 73.609c59.249 59.291 140.521 149.631 193.637 211.912 25.618 30.006 48.772 60.331 71.463 88.32l210.109-206.442c-27.986-22.739-58.402-46.018-88.42-71.668v0zM232.583-27.416c-10.457-5.699-21.21-10.544-32.641-13.978-84.572-25.359-142.105 40.192-142.105 40.192s-66.653 56.451-41.837 140.505c3.328 11.381 8.148 22.099 13.767 32.521 0 0 21.432 35.514 26.21 40.24l215.804-213.927c-5.058-5.116-39.198-25.554-39.198-25.554v0zM1000.225 760.495c-3.34-11.385-8.182-22.124-13.779-32.519 0 0-21.428-35.508-26.189-40.242l-215.806 213.917c5.038 5.126 39.17 25.558 39.17 25.558 10.441 5.697 21.212 10.548 32.649 13.974 84.576 25.369 142.103-40.191 142.103-40.191s66.663-56.443 41.851-140.497v0z" />
<glyph unicode="&#xe606;" d="M956.879 77.714c-48.796-23.494-110.139-35.23-185.414-41.346-61.388-4.975-579.916-2.816-579.916-2.816s-117.104-14.101-156.131 19.74l2.792 84.568c0 0 1.982 14.433 10.192 16.41 8.22 1.974 8.975 1.308 8.975 1.308-13.101 30.76 14.083 219.074 14.083 219.074 16.724 67.664-24.892 233.979-24.892 233.979-27.873 90.217-30.662 284.726-30.662 284.726l234.387-6.436c0 0 25.932-542.648 19.48-581.829-0.219-1.304-0.203-2.613 0.024-3.899 0.177-0.984 16.849-93.798 9.942-154.119-0.207-1.817-0.427-3.613-0.67-5.361-0.274-1.913-0.579-3.776-0.917-5.609-0.62-3.501 0.471-6.9 2.623-9.395 1.607-1.857 3.774-3.245 6.363-3.706 0.672-0.125 1.346-0.183 2.018-0.183 2.913 0 5.621 1.189 7.655 3.152 1.646 1.585 2.857 3.663 3.297 6.114 0.487 2.656 0.899 5.43 1.269 8.238 0.251 1.935 0.495 3.889 0.706 5.895 4.875 45.72-2.175 105.621-6.84 137.327 133.321 3.334 201.746 141.227 204.655 147.227 0.161 0.34 0.245 0.664 0.37 0.984 6.647-3.462 12.851-5.43 12.851-5.43l422.848-158.782c49.011-17.356 54.954-63.005 55.66-73.798 4.434-1.581 14.799-5.73 18.104-16.529 0.147-0.485 1.515-61.901 1.515-61.901s3.034-9.962-54.365-37.606v0zM479.866 440.703c-0.662-1.356-66.204-133.146-187.535-134.675 6.605 71.477-20.389 581.004-20.389 581.004l198.413 6.329 13.95-445.404c0.151-1.096 0.537-2.165 1.008-3.189-2.257-0.332-4.213-1.525-5.448-4.064v0z" />
<glyph unicode="&#xe607;" d="M186.521 939.685c-22.514 0-48.273-11.371-48.273-73.235v-826.438c0-47.848 25.761-63.78 48.273-63.78 22.566 0 48.605 15.933 48.605 63.78v826.438c0 61.864-25.99 73.235-48.605 73.235v0zM213.155 342.256l-14.066-42.584h-24.757l-13.984 42.584v65.061l10.964 17.060h30.378l11.413-17.060v-65.061h0.052zM237.638 412.766v-11.942h13.193l6.951-40.147h12.236l-9.413 52.089h-22.967zM103.356 360.678h12.145l6.943 40.147h13.201v11.942h-22.975l-9.313-52.089zM458.237 939.685c-22.606 0-48.414-11.371-48.414-73.235v-826.438c0-47.848 25.849-63.78 48.414-63.78 22.425 0 48.414 15.933 48.414 63.78v826.438c0 61.864-25.988 73.235-48.414 73.235v0zM484.682 342.256l-14.207-42.584h-24.564l-14.254 42.584v65.061l11.059 17.060h30.412l11.554-17.060v-65.061zM509.214 412.766v-11.942h13.149l6.993-40.147h12.29l-9.321 52.089h-23.111zM374.923 360.678h12.155l6.945 40.147h13.24v11.942h-23.198l-9.142-52.089zM830.852 838.494c-8.498-27.783-4.84-45.269 3.189-65.625 3.744-9.822 4.295-21.476 2.742-30.173-3.054-15.843-11.958-25.807-11.958-25.807l65.671 22.562c-18.637 18.802 0 37.041 0 37.041-17.267 19.269 0 36.854 0 36.854-16.806 20.488 0 38.351 0 38.351-7.216 10.202-5.844 21.864 2.464 38.077 7.866 15.696-9.962 13.161-9.962 13.161s-29.31 0.66-51.055-0.61c-6.446-0.378-11.421-0.469-13.431-6.251-3.012-8.514 3.84-11.94 7.498-16.452 4.746-5.271 12.509-16.784 4.842-41.127v0zM868.851 58.912v663.854l-13.425-4.374v-659.48h13.425zM815.412 50.734h93.54v-13.867h-93.54v13.867zM852.501 28.46h19.359v-62.144h-19.359v62.144zM721.504 838.494c-8.588-27.783-4.929-45.269 3.106-65.625 3.609-9.822 4.378-21.476 2.746-30.173-3.026-15.843-11.976-25.807-11.976-25.807l65.687 22.562c-18.641 18.802 0 37.041 0 37.041-17.267 19.269 0 36.854 0 36.854-16.813 20.488 0 38.351 0 38.351-7.309 10.202-5.987 21.864 2.555 38.077 7.854 15.696-10.045 13.161-10.045 13.161s-29.233 0.66-51.299-0.61c-6.027-0.378-11.188-0.469-13.288-6.251-2.877-8.514 3.927-11.94 7.53-16.452 4.708-5.271 12.56-16.784 4.985-41.127v0zM759.371 58.912v663.854l-13.39-4.374v-659.48h13.39zM705.973 50.734h93.635v-13.867h-93.635v13.867zM743.054 28.46h19.371v-62.144h-19.371v62.144z" />
<glyph unicode="&#xe608;" d="M509.9-47.079c-274.593 0-497.199 222.596-497.199 497.169 0 274.621 222.606 497.199 497.199 497.199 40.769 0 80.369-4.935 118.289-14.187l-27.66-112.545c-29.058 7.116-59.404 10.924-90.629 10.924-210.288 0-381.379-171.088-381.379-381.379 0-210.278 171.090-381.363 381.379-381.363s381.369 171.086 381.369 381.363c0 84.845-27.867 163.291-74.899 226.718 2.193 5.277 3.412 11.071 3.412 17.148 0 24.733-20.118 44.853-44.849 44.853-4.78 0-9.381-0.75-13.7-2.143-22.22 19.518-46.734 36.488-73.060 50.474l54.035 102.603c157.539-83.409 264.88-248.975 264.88-439.664 0-274.573-222.606-497.169-497.189-497.169v0zM738.087 450.1c0-84.33-45.756-157.976-113.795-197.469-8.188 8.693-19.79 14.143-32.645 14.143-23.737 0-43.205-18.517-44.754-41.849-12.033-1.972-24.399-3.004-36.993-3.004-126.024 0-228.199 102.161-228.199 228.177 0 126.043 102.173 228.197 228.199 228.197 18.641 0 36.759-2.249 54.099-6.464l-19.716-80.208c-11.033 2.688-22.532 4.14-34.383 4.14-46.643 0-88.215-22.055-114.891-56.268-24.594-0.165-44.557-20.216-44.557-44.845 0-12.936 5.514-24.604 14.292-32.796-0.306-3.877-0.517-7.79-0.517-11.753 0-80.309 65.355-145.651 145.674-145.651 80.309 0 145.651 65.341 145.651 145.651 0 55.596-31.313 103.993-77.22 128.535l38.502 73.090c72.129-38.333 121.252-114.235 121.252-201.625v0zM628.476 450.1c0-65.484-53.091-118.585-118.575-118.585-65.456 0-118.514 53.031-118.583 118.462 1.318-0.123 2.643-0.193 3.999-0.193 24.733 0 44.855 20.122 44.855 44.865 0 14.501-6.921 27.421-17.645 35.621 21.679 23.614 52.795 38.423 87.374 38.423 9.626 0 18.965-1.181 27.928-3.336l-29.286-119.196 57.193 108.572c37.329-19.973 62.74-59.322 62.74-104.633v0zM730.072 693.965c0-24.733 20.118-44.859 44.861-44.859 6.391 0 12.483 1.35 18.006 3.782 40.974-57.107 65.122-127.127 65.122-202.79 0-192.279-155.885-348.162-348.162-348.162-192.293 0-348.18 155.883-348.18 348.162 0 192.305 155.887 348.174 348.18 348.174 28.507 0 56.205-3.45 82.723-9.916l-21.379-87.016c-19.669 4.798-40.206 7.371-61.345 7.371-142.6 0-258.611-116.008-258.611-258.611 0-142.591 116.010-258.593 258.611-258.593 15.527 0 30.73 1.374 45.511 4.012 8.156-11.179 21.365-18.462 36.236-18.462 24.731 0 44.843 20.13 44.843 44.865 0 0.909-0.024 1.811-0.076 2.714 78.761 44.364 132.080 128.795 132.080 225.463 0 98.883-55.785 184.96-137.526 228.459l41.797 79.331c22.472-11.92 43.499-26.23 62.707-42.598-3.454-6.347-5.4-13.61-5.4-21.327v0z" />
</font></defs></svg>